[
    {
        "id": "2dd6a7a6-df75-447b-af5e-25fab954f1f7",
        "email": "test@test.com",
        "hashed_password": "$2b$12$ib8N/MddMjSxNs4UOF69c.KuO4CyglQHcNATYpHcKJJn5rbltYNFG"
    },
    {
        "id": "5ccb0271-295b-42dd-b261-c6ab392826a2",
        "email": "artem@example.com",
        "hashed_password": "$2b$12$SwAOsDqK7tjnvIcjlTAUvuX6K4xv/zUvqp8Y2oSCtqVv4f/XCB2Bi"
    }
]
